{
    "name": "PlayerPlatformer",
    "maps": [
        {
            "name": "player",
            "id": "27d2c29d-56da-49a9-b5ea-2be5b0a32aca",
            "actions": [
                {
                    "name": "jump",
                    "type": "Button",
                    "id": "f1386f5e-1256-4d39-991b-399ee38c2943",
                    "expectedControlType": "Button",
                    "processors": "",
                    "interactions": ""
                },
                {
                    "name": "move",
                    "type": "Value",
                    "id": "96335329-7756-43ee-80fa-b64e04963084",
                    "expectedControlType": "Axis",
                    "processors": "",
                    "interactions": ""
                }
            ],
            "bindings": [
                {
                    "name": "",
                    "id": "373d1d66-79c3-4373-bdcf-134906cbe26c",
                    "path": "<Keyboard>/space",
                    "interactions": "",
                    "processors": "",
                    "groups": "",
                    "action": "jump",
                    "isComposite": false,
                    "isPartOfComposite": false
                },
                {
                    "name": "",
                    "id": "982738a3-10ff-49bb-8cf5-6c87e39e5a2c",
                    "path": "<Gamepad>/buttonSouth",
                    "interactions": "",
                    "processors": "",
                    "groups": "",
                    "action": "jump",
                    "isComposite": false,
                    "isPartOfComposite": false
                },
                {
                    "name": "",
                    "id": "c16d1d84-041d-49fa-9ef2-888f09aec9ef",
                    "path": "<Gamepad>/leftStick/x",
                    "interactions": "",
                    "processors": "",
                    "groups": "",
                    "action": "move",
                    "isComposite": false,
                    "isPartOfComposite": false
                },
                {
                    "name": "key",
                    "id": "7bbce6fd-f0ce-4488-ab53-0b1894159fe2",
                    "path": "1DAxis",
                    "interactions": "",
                    "processors": "",
                    "groups": "",
                    "action": "move",
                    "isComposite": true,
                    "isPartOfComposite": false
                },
                {
                    "name": "negative",
                    "id": "7c7c774b-a1cb-4147-bbfc-38eae418cf6c",
                    "path": "<Keyboard>/a",
                    "interactions": "",
                    "processors": "",
                    "groups": "",
                    "action": "move",
                    "isComposite": false,
                    "isPartOfComposite": true
                },
                {
                    "name": "positive",
                    "id": "84ff9aaa-3a4f-47a8-a01c-416c87430caa",
                    "path": "<Keyboard>/d",
                    "interactions": "",
                    "processors": "",
                    "groups": "",
                    "action": "move",
                    "isComposite": false,
                    "isPartOfComposite": true
                }
            ]
        }
    ],
    "controlSchemes": []
}