%YAML 1.1
%TAG !u! tag:unity3d.com,2011:
--- !u!21 &2100000
Material:
  serializedVersion: 8
  m_ObjectHideFlags: 0
  m_CorrespondingSourceObject: {fileID: 0}
  m_PrefabInstance: {fileID: 0}
  m_PrefabAsset: {fileID: 0}
  m_Name: Shader Graphs_Animated_Dissolve_Mat_02
  m_Shader: {fileID: -6465566751694194690, guid: 6ce0f1b2f8c99e449b78c3e44bf64830,
    type: 3}
  m_Parent: {fileID: 0}
  m_ModifiedSerializedProperties: 0
  m_ValidKeywords: []
  m_InvalidKeywords: []
  m_LightmapFlags: 4
  m_EnableInstancingVariants: 0
  m_DoubleSidedGI: 0
  m_CustomRenderQueue: -1
  stringTagMap: {}
  disabledShaderPasses:
  - MOTIONVECTORS
  m_LockedProperties: 
  m_SavedProperties:
    serializedVersion: 3
    m_TexEnvs:
    - _SampleTexture2D_6452e9d36d6848b39962eb6d35f50b34_Texture_1:
        m_Texture: {fileID: 2800000, guid: 358c8de5fd82e9f46a85cbffa8823249, type: 3}
        m_Scale: {x: 1, y: 1}
        m_Offset: {x: 0, y: 0}
    - _SampleTexture2D_7c80c04671b54401b3d41cafbd721f26_Texture_1:
        m_Texture: {fileID: 2800000, guid: 9bd4f07bd017c914d881dd7faa87c83e, type: 3}
        m_Scale: {x: 1, y: 1}
        m_Offset: {x: 0, y: 0}
    - _SampleTexture2D_7c80c04671b54401b3d41cafbd721f26_Texture_1_Texture2D:
        m_Texture: {fileID: 2800000, guid: 9bd4f07bd017c914d881dd7faa87c83e, type: 3}
        m_Scale: {x: 1, y: 1}
        m_Offset: {x: 0, y: 0}
    - _SampleTexture2D_7dcefcd899d14e1ab1bd698c3ed644ca_Texture_1:
        m_Texture: {fileID: 2800000, guid: 38e4e086e6f5a3742932cd69603728e5, type: 3}
        m_Scale: {x: 1, y: 1}
        m_Offset: {x: 0, y: 0}
    - _SampleTexture2D_7dcefcd899d14e1ab1bd698c3ed644ca_Texture_1_Texture2D:
        m_Texture: {fileID: 2800000, guid: 38e4e086e6f5a3742932cd69603728e5, type: 3}
        m_Scale: {x: 1, y: 1}
        m_Offset: {x: 0, y: 0}
    - _SampleTexture2D_89f58433e86d4edba5964f667df220ce_Texture_1:
        m_Texture: {fileID: 2800000, guid: 38e4e086e6f5a3742932cd69603728e5, type: 3}
        m_Scale: {x: 1, y: 1}
        m_Offset: {x: 0, y: 0}
    - _SampleTexture2D_fa9283b9cfcf42cd9fb4c8b90a756fd4_Texture_1:
        m_Texture: {fileID: 2800000, guid: b303fbc2538b2414fa3cdc9783ee0a23, type: 3}
        m_Scale: {x: 1, y: 1}
        m_Offset: {x: 0, y: 0}
    - unity_Lightmaps:
        m_Texture: {fileID: 0}
        m_Scale: {x: 1, y: 1}
        m_Offset: {x: 0, y: 0}
    - unity_LightmapsInd:
        m_Texture: {fileID: 0}
        m_Scale: {x: 1, y: 1}
        m_Offset: {x: 0, y: 0}
    - unity_ShadowMasks:
        m_Texture: {fileID: 0}
        m_Scale: {x: 1, y: 1}
        m_Offset: {x: 0, y: 0}
    m_Ints: []
    m_Floats:
    - Anim: 0
    - Animation_SpeedAnim_Speed: 0
    - Vector1_2fa249f5d11244e3a32daf54155997b5: 30
    - Vector1_50dd649eada047afa5129f6ca6e38111: -0.5
    - Vector1_53874db3b39d445aa79ae43e66114039: 0.1
    - Vector1_95ab08b04cfb4b369cb630b985e6cebd: 0
    - Vector1_feff66f591824d269fae2d8e3e9853a7: 8
    - _QueueControl: 0
    - _QueueOffset: 0
    m_Colors:
    - Color_b38e1649a1a84282ae536d6c1fa98565: {r: 89.45409, g: 24.822338, b: 0, a: 0}
    - Vector3_be5b1c13538549e3877248ca2873fdda: {r: 0.09, g: 0, b: 2.23, a: 0}
    - impactPoint: {r: 0, g: 1, b: 0, a: 0}
  m_BuildTextureStacks: []
  m_AllowLocking: 1
--- !u!114 &7413525653876588619
MonoBehaviour:
  m_ObjectHideFlags: 11
  m_CorrespondingSourceObject: {fileID: 0}
  m_PrefabInstance: {fileID: 0}
  m_PrefabAsset: {fileID: 0}
  m_GameObject: {fileID: 0}
  m_Enabled: 1
  m_EditorHideFlags: 0
  m_Script: {fileID: 11500000, guid: d0353a89b1f911e48b9e16bdc9f2e058, type: 3}
  m_Name: 
  m_EditorClassIdentifier: 
  version: 9
