%YAML 1.1
%TAG !u! tag:unity3d.com,2011:
--- !u!114 &-6226850654834228867
MonoBehaviour:
  m_ObjectHideFlags: 3
  m_CorrespondingSourceObject: {fileID: 0}
  m_PrefabInstance: {fileID: 0}
  m_PrefabAsset: {fileID: 0}
  m_GameObject: {fileID: 0}
  m_Enabled: 1
  m_EditorHideFlags: 0
  m_Script: {fileID: 11500000, guid: 2fd03cbbfa7b7fe4dbc3d7709b42d662, type: 3}
  m_Name: ScreenSpaceGlobalIlluminationVolume
  m_EditorClassIdentifier: 
  active: 1
  enable:
    m_OverrideState: 1
    m_Value: 1
  thicknessMode:
    m_OverrideState: 1
    m_Value: 0
  depthBufferThickness:
    m_OverrideState: 1
    m_Value: 0.1
  quality:
    m_OverrideState: 1
    m_Value: 0
  fullResolutionSS:
    m_OverrideState: 1
    m_Value: 0
  resolutionScaleSS:
    m_OverrideState: 1
    m_Value: 0.5
  sampleCount:
    m_OverrideState: 1
    m_Value: 2
  maxRaySteps:
    m_OverrideState: 1
    m_Value: 32
  denoiseSS:
    m_OverrideState: 1
    m_Value: 1
  denoiserAlgorithmSS:
    m_OverrideState: 1
    m_Value: 1
  denoiseIntensitySS:
    m_OverrideState: 1
    m_Value: 0.95
  denoiserRadiusSS:
    m_OverrideState: 1
    m_Value: 0.6
  secondDenoiserPassSS:
    m_OverrideState: 1
    m_Value: 1
  rayMiss:
    m_OverrideState: 0
    m_Value: 1
  indirectDiffuseLightingMultiplier:
    m_OverrideState: 1
    m_Value: 1
  indirectDiffuseRenderingLayers:
    m_OverrideState: 0
    m_Value:
      serializedVersion: 0
      m_Bits: 65535
--- !u!114 &-32820517437979890
MonoBehaviour:
  m_ObjectHideFlags: 3
  m_CorrespondingSourceObject: {fileID: 0}
  m_PrefabInstance: {fileID: 0}
  m_PrefabAsset: {fileID: 0}
  m_GameObject: {fileID: 0}
  m_Enabled: 1
  m_EditorHideFlags: 0
  m_Script: {fileID: 11500000, guid: 0b2db86121404754db890f4c8dfe81b2, type: 3}
  m_Name: Bloom
  m_EditorClassIdentifier: 
  active: 1
  skipIterations:
    m_OverrideState: 1
    m_Value: 1
  threshold:
    m_OverrideState: 1
    m_Value: 2.25
  intensity:
    m_OverrideState: 1
    m_Value: 2
  scatter:
    m_OverrideState: 1
    m_Value: 0.7
  clamp:
    m_OverrideState: 1
    m_Value: 65472
  tint:
    m_OverrideState: 1
    m_Value: {r: 1, g: 1, b: 1, a: 1}
  highQualityFiltering:
    m_OverrideState: 1
    m_Value: 0
  downscale:
    m_OverrideState: 0
    m_Value: 0
  maxIterations:
    m_OverrideState: 0
    m_Value: 6
  dirtTexture:
    m_OverrideState: 1
    m_Value: {fileID: 0}
    dimension: 1
  dirtIntensity:
    m_OverrideState: 1
    m_Value: 0
--- !u!114 &11400000
MonoBehaviour:
  m_ObjectHideFlags: 0
  m_CorrespondingSourceObject: {fileID: 0}
  m_PrefabInstance: {fileID: 0}
  m_PrefabAsset: {fileID: 0}
  m_GameObject: {fileID: 0}
  m_Enabled: 1
  m_EditorHideFlags: 0
  m_Script: {fileID: 11500000, guid: d7fd9488000d3734a9e00ee676215985, type: 3}
  m_Name: GlobalVolumeProfile
  m_EditorClassIdentifier: 
  components:
  - {fileID: 1881579288749618558}
  - {fileID: -32820517437979890}
  - {fileID: 6556019353192332284}
  - {fileID: -6226850654834228867}
--- !u!114 &1881579288749618558
MonoBehaviour:
  m_ObjectHideFlags: 3
  m_CorrespondingSourceObject: {fileID: 0}
  m_PrefabInstance: {fileID: 0}
  m_PrefabAsset: {fileID: 0}
  m_GameObject: {fileID: 0}
  m_Enabled: 1
  m_EditorHideFlags: 0
  m_Script: {fileID: 11500000, guid: 97c23e3b12dc18c42a140437e53d3951, type: 3}
  m_Name: Tonemapping
  m_EditorClassIdentifier: 
  active: 1
  mode:
    m_OverrideState: 1
    m_Value: 2
  neutralHDRRangeReductionMode:
    m_OverrideState: 0
    m_Value: 2
  acesPreset:
    m_OverrideState: 0
    m_Value: 3
  hueShiftAmount:
    m_OverrideState: 0
    m_Value: 0
  detectPaperWhite:
    m_OverrideState: 0
    m_Value: 0
  paperWhite:
    m_OverrideState: 0
    m_Value: 300
  detectBrightnessLimits:
    m_OverrideState: 0
    m_Value: 1
  minNits:
    m_OverrideState: 0
    m_Value: 0.005
  maxNits:
    m_OverrideState: 0
    m_Value: 1000
--- !u!114 &6556019353192332284
MonoBehaviour:
  m_ObjectHideFlags: 3
  m_CorrespondingSourceObject: {fileID: 0}
  m_PrefabInstance: {fileID: 0}
  m_PrefabAsset: {fileID: 0}
  m_GameObject: {fileID: 0}
  m_Enabled: 1
  m_EditorHideFlags: 0
  m_Script: {fileID: 11500000, guid: 66f335fb1ffd8684294ad653bf1c7564, type: 3}
  m_Name: ColorAdjustments
  m_EditorClassIdentifier: 
  active: 1
  postExposure:
    m_OverrideState: 1
    m_Value: 0.5
  contrast:
    m_OverrideState: 1
    m_Value: 0
  colorFilter:
    m_OverrideState: 1
    m_Value: {r: 1, g: 1, b: 1, a: 1}
  hueShift:
    m_OverrideState: 1
    m_Value: 0
  saturation:
    m_OverrideState: 1
    m_Value: 0
