{
    "name": "ThirdPerson",
    "maps": [
        {
            "name": "player",
            "id": "3f396fdc-a810-4d52-a36e-9e5175857413",
            "actions": [
                {
                    "name": "move",
                    "type": "Value",
                    "id": "cf34cb0d-de77-4556-8e31-0c5b425cd4f3",
                    "expectedControlType": "Vector2",
                    "processors": "",
                    "interactions": ""
                },
                {
                    "name": "interact",
                    "type": "Button",
                    "id": "b8153b51-9f66-42ce-89e5-1b4457f0c71e",
                    "expectedControlType": "Button",
                    "processors": "",
                    "interactions": ""
                },
                {
                    "name": "look",
                    "type": "Value",
                    "id": "90194925-3d7d-48c2-9c9a-47e85739c9b3",
                    "expectedControlType": "Vector2",
                    "processors": "",
                    "interactions": ""
                }
            ],
            "bindings": [
                {
                    "name": "",
                    "id": "5bd6edee-aa77-40b5-a469-88409fe016cc",
                    "path": "<Gamepad>/leftStick",
                    "interactions": "",
                    "processors": "",
                    "groups": "",
                    "action": "move",
                    "isComposite": false,
                    "isPartOfComposite": false
                },
                {
                    "name": "key",
                    "id": "5f3409b3-2af6-40cc-baa5-e94d61f04dc5",
                    "path": "2DVector",
                    "interactions": "",
                    "processors": "",
                    "groups": "",
                    "action": "move",
                    "isComposite": true,
                    "isPartOfComposite": false
                },
                {
                    "name": "up",
                    "id": "c9428b17-c25a-4d80-b169-183ac92f1fa5",
                    "path": "<Keyboard>/w",
                    "interactions": "",
                    "processors": "",
                    "groups": "",
                    "action": "move",
                    "isComposite": false,
                    "isPartOfComposite": true
                },
                {
                    "name": "down",
                    "id": "1d1f9bc6-e7fb-47ff-8ec5-05f15cf72c00",
                    "path": "<Keyboard>/s",
                    "interactions": "",
                    "processors": "",
                    "groups": "",
                    "action": "move",
                    "isComposite": false,
                    "isPartOfComposite": true
                },
                {
                    "name": "left",
                    "id": "420dc294-2ac7-489d-b3ae-9fca1088e78c",
                    "path": "<Keyboard>/a",
                    "interactions": "",
                    "processors": "",
                    "groups": "",
                    "action": "move",
                    "isComposite": false,
                    "isPartOfComposite": true
                },
                {
                    "name": "right",
                    "id": "f6ac149c-19c3-41cc-8314-23fc120a1e8a",
                    "path": "<Keyboard>/d",
                    "interactions": "",
                    "processors": "",
                    "groups": "",
                    "action": "move",
                    "isComposite": false,
                    "isPartOfComposite": true
                },
                {
                    "name": "",
                    "id": "e0d5ddc9-2593-4191-a85c-4f2e029d0225",
                    "path": "<Keyboard>/e",
                    "interactions": "",
                    "processors": "",
                    "groups": "",
                    "action": "interact",
                    "isComposite": false,
                    "isPartOfComposite": false
                },
                {
                    "name": "",
                    "id": "8a7828da-c762-4c24-894b-8d9c8969ccd8",
                    "path": "<Gamepad>/buttonWest",
                    "interactions": "",
                    "processors": "",
                    "groups": "",
                    "action": "interact",
                    "isComposite": false,
                    "isPartOfComposite": false
                },
                {
                    "name": "",
                    "id": "1f9c7337-12f7-47e5-b761-516d15b52bf4",
                    "path": "<Mouse>/delta",
                    "interactions": "",
                    "processors": "",
                    "groups": "",
                    "action": "look",
                    "isComposite": false,
                    "isPartOfComposite": false
                },
                {
                    "name": "",
                    "id": "1351c062-7c22-4b95-bc37-545a3cf38a69",
                    "path": "<Gamepad>/rightStick",
                    "interactions": "",
                    "processors": "",
                    "groups": "",
                    "action": "look",
                    "isComposite": false,
                    "isPartOfComposite": false
                }
            ]
        }
    ],
    "controlSchemes": []
}